<?xml version="1.0" encoding="UTF-8" standalone="no"?>
<!-- Created with Inkscape (http://www.inkscape.org/) -->

<svg
   xmlns:dc="http://purl.org/dc/elements/1.1/"
   xmlns:cc="http://creativecommons.org/ns#"
   xmlns:rdf="http://www.w3.org/1999/02/22-rdf-syntax-ns#"
   xmlns:svg="http://www.w3.org/2000/svg"
   xmlns="http://www.w3.org/2000/svg"
   xmlns:sodipodi="http://sodipodi.sourceforge.net/DTD/sodipodi-0.dtd"
   xmlns:inkscape="http://www.inkscape.org/namespaces/inkscape"
   width="22.532658mm"
   height="28.391279mm"
   viewBox="0 0 22.532658 28.39128"
   version="1.1"
   id="svg5447"
   inkscape:version="0.92.4 (f8dce91, 2019-08-02)"
   sodipodi:docname="q.svg">
  <defs
     id="defs5441" />
  <sodipodi:namedview
     id="base"
     pagecolor="#ffffff"
     bordercolor="#666666"
     borderopacity="1.0"
     inkscape:pageopacity="0.0"
     inkscape:pageshadow="2"
     inkscape:zoom="7.9195959"
     inkscape:cx="50.212889"
     inkscape:cy="53.394356"
     inkscape:document-units="mm"
     inkscape:current-layer="layer1"
     showgrid="false"
     inkscape:window-width="1850"
     inkscape:window-height="1016"
     inkscape:window-x="70"
     inkscape:window-y="27"
     inkscape:window-maximized="1" />
  <metadata
     id="metadata5444">
    <rdf:RDF>
      <cc:Work
         rdf:about="">
        <dc:format>image/svg+xml</dc:format>
        <dc:type
           rdf:resource="http://purl.org/dc/dcmitype/StillImage" />
        <dc:title></dc:title>
      </cc:Work>
    </rdf:RDF>
  </metadata>
  <g
     inkscape:label="Layer 1"
     inkscape:groupmode="layer"
     id="layer1"
     transform="translate(0.58850046,1.4337386)">
    <rect
       style="fill:#000000;fill-opacity:1;stroke:#00ccff;stroke-width:1.14831865;stroke-miterlimit:4;stroke-dasharray:none;stroke-opacity:1"
       id="rect5469"
       width="21.384338"
       height="27.24296"
       x="-0.014341135"
       y="-0.85957927" />
    <path
       d="M 4.616134,2.1481834 4.6457673,1.7931126 4.7936694,1.5859438 5.0005735,1.4380417 5.3556444,1.4086727 H 16.452268 l 0.384704,0.059002 0.207169,0.1037166 0.103452,0.2069042 0.04445,0.3698875 V 7.4745088 H 14.972718 V 3.6277334 H 6.8351944 V 10.285708 H 12.72376 L 9.2468714,12.505033 H 5.3111944 L 5.0153902,12.460583 4.808486,12.357131 4.6603194,12.105777 4.6309506,11.78034 Z"
       id="path136"
       inkscape:connector-curvature="0"
       style="fill:#00ccff;stroke:none;stroke-width:0.37041667" />
    <path
       style="fill:#00ccff;stroke:none;stroke-width:0.37041667"
       inkscape:connector-curvature="0"
       id="path158"
       d="m 11.959643,22.466596 c 0.441854,-0.541073 0.721254,-1.442773 0.721254,-2.326216 0,-0.964936 -0.342635,-1.893623 -0.919691,-2.515923 -0.568061,-0.61304 -1.307571,-0.909373 -2.2452533,-0.909373 -0.9376833,0 -1.6771938,0.297127 -2.2452542,0.909373 -0.5770562,0.6223 -0.9183687,1.550987 -0.9183687,2.533914 0,0.982663 0.3421062,1.911615 0.9183687,2.53365 0.5680604,0.61304 1.3165667,0.910696 2.2452542,0.910696 0.6762743,0 1.1810993,-0.135202 1.7041803,-0.45085 l 0.775494,0.730515 0.68527,-0.730515 z m -1.668198,-1.577975 -0.6852694,0.730515 0.6942654,0.658019 c -0.207433,0.108214 -0.5050883,0.171979 -0.7934841,0.171979 -1.0821459,0 -1.8026063,-0.910961 -1.8026063,-2.290763 0,-1.379537 0.7209896,-2.289704 1.8116021,-2.289704 1.1001363,0 1.8131883,0.901436 1.8131883,2.2987 0,0.541073 -0.09948,1.027906 -0.298185,1.424517 z" />
  </g>
</svg>
