<?xml version="1.0" encoding="UTF-8" standalone="no"?>
<!-- Created with Inkscape (http://www.inkscape.org/) -->

<svg
   xmlns:dc="http://purl.org/dc/elements/1.1/"
   xmlns:cc="http://creativecommons.org/ns#"
   xmlns:rdf="http://www.w3.org/1999/02/22-rdf-syntax-ns#"
   xmlns:svg="http://www.w3.org/2000/svg"
   xmlns="http://www.w3.org/2000/svg"
   xmlns:sodipodi="http://sodipodi.sourceforge.net/DTD/sodipodi-0.dtd"
   xmlns:inkscape="http://www.inkscape.org/namespaces/inkscape"
   width="22.532658mm"
   height="28.391279mm"
   viewBox="0 0 22.532658 28.39128"
   version="1.1"
   id="svg5447"
   inkscape:version="0.92.4 (f8dce91, 2019-08-02)"
   sodipodi:docname="s.svg">
  <defs
     id="defs5441" />
  <sodipodi:namedview
     id="base"
     pagecolor="#ffffff"
     bordercolor="#666666"
     borderopacity="1.0"
     inkscape:pageopacity="0.0"
     inkscape:pageshadow="2"
     inkscape:zoom="7.9195959"
     inkscape:cx="50.212889"
     inkscape:cy="53.394356"
     inkscape:document-units="mm"
     inkscape:current-layer="layer1"
     showgrid="false"
     inkscape:window-width="1850"
     inkscape:window-height="1016"
     inkscape:window-x="70"
     inkscape:window-y="27"
     inkscape:window-maximized="1" />
  <metadata
     id="metadata5444">
    <rdf:RDF>
      <cc:Work
         rdf:about="">
        <dc:format>image/svg+xml</dc:format>
        <dc:type
           rdf:resource="http://purl.org/dc/dcmitype/StillImage" />
        <dc:title></dc:title>
      </cc:Work>
    </rdf:RDF>
  </metadata>
  <g
     inkscape:label="Layer 1"
     inkscape:groupmode="layer"
     id="layer1"
     transform="translate(0.58850046,1.4337386)">
    <rect
       style="fill:#000000;fill-opacity:1;stroke:#00ccff;stroke-width:1.14831865;stroke-miterlimit:4;stroke-dasharray:none;stroke-opacity:1"
       id="rect5469"
       width="21.384338"
       height="27.24296"
       x="-0.014341135"
       y="-0.85957927" />
    <path
       d="M 3.8779865,7.8889576 3.1974782,9.9307454 10.180891,12.386609 10.7725,10.374453 Z"
       id="path140"
       inkscape:connector-curvature="0"
       style="fill:#00ccff;stroke:none;stroke-width:0.37041667" />
    <path
       d="m 17.897199,12.416507 h -2.9591 L 3.841474,1.3198843 H 6.9484762 L 15.677874,10.04928 V 1.3198843 h 2.219325 z"
       id="path142"
       inkscape:connector-curvature="0"
       style="fill:#00ccff;stroke:none;stroke-width:0.37041667" />
    <path
       style="fill:#00ccff;stroke:none;stroke-width:0.37041667"
       inkscape:connector-curvature="0"
       id="path162"
       d="m 12.561612,18.735286 c 0,-0.604044 -0.135467,-1.000919 -0.46011,-1.361546 -0.441854,-0.486834 -1.172104,-0.747184 -2.1190489,-0.747184 -1.5779749,0 -2.4870832,0.738982 -2.4870832,2.018507 0,1.01891 0.5135563,1.515004 1.8467915,1.767416 l 0.9196926,0.180182 c 0.9017,0.17145 1.236662,0.423862 1.236662,0.955939 0,0.549804 -0.505354,0.883444 -1.326885,0.883444 -0.9196926,0 -1.4335132,-0.387615 -1.4784923,-1.090877 H 7.376572 c 0.081227,1.406525 1.0458979,2.173023 2.723092,2.173023 1.695186,0 2.696104,-0.793486 2.696104,-2.128044 0,-1.036902 -0.523081,-1.577975 -1.740429,-1.812396 L 10.027432,19.375313 C 9.0627616,19.186136 8.7838907,18.996694 8.7838907,18.518856 c 0,-0.496093 0.4415897,-0.810418 1.1353264,-0.810418 0.8567219,0 1.3345599,0.360098 1.3795389,1.026848 z" />
  </g>
</svg>
